[
  {
    "name": "哆啦A梦之歌",
    "singer": "哆啦A梦",
    "url": "./songs/哆啦A梦之歌.mp3",
    "img": "./img/2.jpg"
  },
  {
    "name": "恭喜发财",
    "singer": "刘德华",
    "url": "./songs/恭喜发财.mp3",
    "img": "./img/0.jpg"
  },
  {
    "name": "火红的萨日朗",
    "singer": "麦小兜",
    "url": "./songs/火红的萨日朗.mp3",
    "img": "./img/3.jpg"
  },
  {
    "name": "陪你去流浪",
    "singer": "薛之谦",
    "url": "./songs/陪你去流浪.mp3",
    "img": "./img/1.jpg"
  },
  {
    "name": "欧若拉",
    "singer": "张韶涵",
    "url": "./songs/欧若拉.mp3",
    "img": "./img/5.jpg"
  },
  {
    "name": "下山",
    "singer": "要不要买菜",
    "url": "./songs/下山.mp3",
    "img": "./img/4.jpg"
  }
]