{
  "path": "/Users/zhaoyaxiang/Desktop/01/node/2-26/text",
  "isFile": false,
  "children": [
    {
      "path": "/Users/zhaoyaxiang/Desktop/01/node/2-26/text/app.js",
      "isFile": true
    },
    {
      "path": "/Users/zhaoyaxiang/Desktop/01/node/2-26/text/util",
      "isFile": false,
      "children": [
        {
          "path": "/Users/zhaoyaxiang/Desktop/01/node/2-26/text/util/js",
          "isFile": false,
          "children": [
            {
              "path": "/Users/zhaoyaxiang/Desktop/01/node/2-26/text/util/js/a1.js",
              "isFile": true
            },
            {
              "path": "/Users/zhaoyaxiang/Desktop/01/node/2-26/text/util/js/a2.js",
              "isFile": true
            },
            {
              "path": "/Users/zhaoyaxiang/Desktop/01/node/2-26/text/util/js/a3.js",
              "isFile": true
            },
            {
              "path": "/Users/zhaoyaxiang/Desktop/01/node/2-26/text/util/js/css",
              "isFile": false,
              "children": [
                {
                  "path": "/Users/zhaoyaxiang/Desktop/01/node/2-26/text/util/js/css/A.css",
                  "isFile": true
                }
              ]
            }
          ]
        },
        {
          "path": "/Users/zhaoyaxiang/Desktop/01/node/2-26/text/util/util1.js",
          "isFile": true
        },
        {
          "path": "/Users/zhaoyaxiang/Desktop/01/node/2-26/text/util/util2.js",
          "isFile": true
        },
        {
          "path": "/Users/zhaoyaxiang/Desktop/01/node/2-26/text/util/util3.js",
          "isFile": true
        }
      ]
    }
  ]
}