[
  {
    "id": "630000201812213211",
    "name": "马伟",
    "price": 28,
    "count": 0,
    "desc": "议选能取并据可京需般广华军果教列作何须己火以须心七回布是就干统此民理验场例快大由化之米出少导江反济满表建克水料高八更通她比花老按么反内按是厂美光了济办进好来引确单值美中需计了许其列好手离再运值马资关难车保何而低政别议油两须布强切回究市除就过电备公总产指料务安属以种气转路率何物花知例厂影共志身场叫毛条老达么写验己接起科而没得存美量单近信只铁今矿活响酸低七少即色线养至国经命少人转改万飞院习车由治京争走",
    "image": "http://dummyimage.com/100x100/c979f2&text=Kiqoeoqq Cysxfbi Sxbbvx Jgvgfr"
  },
  {
    "id": "620000198006245757",
    "name": "江刚",
    "price": 40,
    "count": 0,
    "desc": "期持证想金能适线前始采将段再高五次真性认八或己干型看革率别出角商小江党行代百周几每厂通需百时层把满术有入京家快识之音广还商物由光则半业类期志才来相文界热具件山上月较种权保法周始美率不号示你看打集号约不传之写将达间你今不广市变称统发管部开光么相住处决决眼志矿指速位极维直积影准常自音家然教日无取往片志使须民情两着么主做众段设格局也层信志象命海度京活以别思增示都达由而就信过为人克习除中张圆质入从力具严称",
    "image": "http://dummyimage.com/100x100/79f2a6&text=Pqgcfehxt Wgiousb Lgqkk Dtxylrmvva Qxmzym"
  },
  {
    "id": "220000198805130839",
    "name": "黎军",
    "price": 27,
    "count": 0,
    "desc": "明节工入基条特争都科员米动候带计但今叫改影持品影装具厂节合说技好还还华力东设派在体据目名适克效国很除历始引往信题重住合比可地再该只中般确思建式先集个族在查起际手整京定品消受教才受数指物且公意段如题支情长色常引比导做流二安中级从料个而其型王和越商圆因工历养意入米目油被住人去表花调名到制眼他各目反场称为认海万任难放节传列七提称越己门持光习长南革他带族公需利表众山周却反风更老张是如何省用后团如劳它工很矿",
    "image": "http://dummyimage.com/100x100/f28279&text=Kwooelmd Hndah Qffxxqgmi Qpbrbbi"
  },
  {
    "id": "420000201611106461",
    "name": "文超",
    "price": 11,
    "count": 0,
    "desc": "清影易走则活出作转至种候问接对们因易片切治果政节重应水里声快中除器期因路议火严少群对华好除报水所回族话儿布为展证会学也三必己该象事保一回这交量条生理龙商识件相族问或开明白大基张应化准力头真增风心满机南常层据周受计照月严时音人方即期和文且自压置断全实何斗精很京克相党斗量以记离入元群克得机影线切对部人长区快切京制小将命向小列存拉局应技比象被务打府听花县政它三多点见克信复图红所活离些史山了习回目过美先流",
    "image": "http://dummyimage.com/100x100/7992f2&text=Wbellnysw Wpgp Kqvz Tewr Gnfcvigyv Wkheafe"
  },
  {
    "id": "130000198901011977",
    "name": "梁强",
    "price": 38,
    "count": 0,
    "desc": "厂识时局高被华养志权级来金重开低党节料利那调本其两那重意局心相称热造几节高写江收而力运事下革两候达科眼很备记备列更法回线六万带周风片易志离据济理万义再我见目光县定深小门例石同拉主你把团眼许济报边酸有真党周上设走率段和权员圆火条目为容接将成你阶见学住速究实处酸型大维示记起得回小备温标于很外名给济际成话江说命无器中布能整局取元象儿约任论消消验加类年并决省部计过前变层研非红养例低天克按改口始达细线设记回",
    "image": "http://dummyimage.com/100x100/b6f279&text=Vdlniks Gtsbyg Hacff Fctlg Nhxhwge Rnyhz"
  },
  {
    "id": "140000198710298663",
    "name": "宋秀兰",
    "price": 46,
    "count": 0,
    "desc": "到当放布油主军路有信十往海存风派究适省作员事与年西口气按备求细须列第造林三成导严压段了养命为院按完即把前县住他目格品王厂每群建当花千间海心还化月具别较己每形后无自农王要参除口来万组法置图总它转能值究结证为组效层身展这叫区她月构世成器实影去条式次共正时济增两同展容就转府斗史命边采转重自般市技今社主快积七七府和节半广着变律百气导民少认着场山定件车价精角可究样改门是速使作林识并育油支团相往可层济亲听法各",
    "image": "http://dummyimage.com/100x100/f279d9&text=Hmeuzinx Jmuwrcgwk Eiskpp Esohxd Iuwj Wmtuv"
  },
  {
    "id": "110000201708051222",
    "name": "杨涛",
    "price": 26,
    "count": 0,
    "desc": "时却音办论个他持特海间证越路一石必其万家日没四战用段美带一真而业入大组文中用声分装历达基证原习众多交备当华命与近维周风入要平头信音例及山斗较开计少集府四多能内劳温其叫总表查压满路们调火料叫地第求公物九红大如育易者保相查单接战单后今气两音音区间到四成又压报国统金集属联学习劳类选头老住别的社整容际处最道清龙白放三许按目白多率西起交府名约外员难号油就写西没火说交素分三议单边青她新准正强转率广严争劳少术需",
    "image": "http://dummyimage.com/100x100/79f2e7&text=Klern Igjecfct Sjfrb Ecisq"
  },
  {
    "id": "650000198208243245",
    "name": "乔伟",
    "price": 5,
    "count": 0,
    "desc": "格单安拉理之今今族术革或标听属证界意影斯难件任联和一在者么设强深先把委上片上决调组度本流门间动效得队律是花现变外组音及效图到交一先队金书基集保意车记月决报六安教加或处品好道还么出东统离具或单人根战再部精交天低斗而农非教形科产解地住层观了两新还业在开带参人南二几流或研参技由任知被温音话候想按作马主布结人八且府用些相断全时技任住便多传头确命金六五听员先细备或里件快行青共存切主律队构交眼标算感部化斯入没",
    "image": "http://dummyimage.com/100x100/f2c479&text=Xtppss Vbwlnmhyv Zfu Sun Topbjhxi Vxyn"
  },
  {
    "id": "370000197907162653",
    "name": "薛磊",
    "price": 45,
    "count": 0,
    "desc": "层万名物少应克消半表必边须利电新容包金书部改后把精过按九节局规立引转有例立和无么因命片眼型转装到张提石做使了者影铁细还经法结高局照两场无义式用有又数飞照机想平进马通之去光须以很量群由样原现给因去却儿土直可关些目看据每县济革持毛强增采果题市住做合和例同形京美亲清间律各领电口结然将西要养广素花较写历学南定特深示查速七克重和社总热样十科信其土断原制置全克集变比示很院色该引响己目原别适素究温强到新者员从史",
    "image": "http://dummyimage.com/100x100/a179f2&text=Qmd Gslp Uluet Mjrnj"
  },
  {
    "id": "630000200702221013",
    "name": "何秀英",
    "price": 10,
    "count": 0,
    "desc": "保子速此口性除信后它之清产大更民转进据连或候里口且酸热眼件打精进商提为深常院科报利联矿导林本值展列公一立和流龙式适信状太式元公接委程集能保许面统无电等根装龙何风何然同由价持市保装备运它革立状准观问象小经出而色重内属于先消身开际认作中整他们等将者位它了物我己解信打何效史电西着南得全响这反传作和层单内即构更这在些率下技军方争加再须七石老以具圆水米会影指几九影海族经门转斯基及装织现些新家组特计样确量市易",
    "image": "http://dummyimage.com/100x100/79f27d&text=Lvzuggfu Vjjbedl Wug Lzdulshj Cqhyk"
  },
  {
    "id": "530000197807037353",
    "name": "龙敏",
    "price": 38,
    "count": 0,
    "desc": "再况包务保海等际没空见科和族青论儿命表儿识住山需示可资走格适专太再面料分飞矿影体金斯拉中进能条民区向布干性代积再受主市众集转斯存派律院路包方京义角量叫治实代见领和加众与与做速例东放你规选理劳油技化话话日传已般业少去口工却反安严做果专员量想国空金证话性消信按律况才日书级电将性间快件接适具用林入道热拉传及心外和般不采又然至名只权行手支南研识主主力极半只重革收影能没走信国张条科水习用同委正说论本候如指指",
    "image": "http://dummyimage.com/100x100/f27997&text=Guku Hiybbjnxkd Dcgqgyp Ggjrgx Pjcbmwpn"
  },
  {
    "id": "110000200609078441",
    "name": "曾勇",
    "price": 18,
    "count": 0,
    "desc": "海元得公结京国技见下华道流飞它素各口消化需因支接酸道己经半在南政习况表后备代听就共法区增济物他么织图名学行省用交少何自车之省研南听片却车空者京决行提料增层除与断进因信去应却须想日家济情装名很断花查农条党治深名任物走铁王题都东群美群生际家容才则带线飞学和消信火标没节容件志之放需外等院育切布约心高龙表正面建动都广问力眼大当发制每天极她力少先格阶图放该机计保色该作从织必而类头收总各还规集切技七选工识收十",
    "image": "http://dummyimage.com/100x100/79bbf2&text=Tgvkgp Vtxsdboma Imu Wwhwtihp Zgjb"
  },
  {
    "id": "130000202204124481",
    "name": "吴芳",
    "price": 10,
    "count": 0,
    "desc": "成阶近值了条把离想温界价示离听世济效存该五后提我根间机计并世代少华毛品般克采会实口去先是关各心两金快音情总白保行布设生铁你业阶单报儿提示律度又区听日亲老作中经二往量才社积分其形常身较说高置规以他节得连南最者严京去容或学速接难断存京小而做式音边物族群性水华交型才算你成七拉带研作率我通张见值热问政更儿正没算性力会万度此权自至两东实意走写容对近知关四放水无确己而转信现便十可备严与更书马象习立间根北增花容",
    "image": "http://dummyimage.com/100x100/def279&text=Jaeie Jtb Poriwwtc Eicsot Wsdhqwshe Wqatrsqrn"
  },
  {
    "id": "520000197805114819",
    "name": "刘涛",
    "price": 27,
    "count": 0,
    "desc": "细小斗状地成上物些完布写圆精运备任无个有向花叫工空片同口示存政明办展近则出单二千种证比般己情然件花气研型界选四物维被样江东拉层明已标府光回级变斗质方由须给七解易将准一许量水安果养关同多都运因别子受他无交况保了马形马格料用面多花细率资族山置较证便法太心活子中务党地济引还周七说带自其人门矿存织需件段少展看又联先入儿进果许毛复等线石至深包化革持过设今安量往个需多那其圆前会权准族思声安场被层能名么问身例社",
    "image": "http://dummyimage.com/100x100/e279f2&text=Cbiw Nizayni Ddgqu Hwfic Wqjiqfo"
  },
  {
    "id": "140000197607196189",
    "name": "沈平",
    "price": 33,
    "count": 0,
    "desc": "话线自叫二当将大其两所外精全个矿分战反料准采取期任就长何府院划给有各于经严整历西复做团包思白由它并院可重局取如约再片称色论学克领织程准式定争完制南济族安高育影中义必高给提化被小基共圆打话再场接设许该说大方切须照才满划石而整压技律权识过生认半处还定装易单领正前情安情改万林信必机权存品示研定王四向院识上社常共该题群由不则常组生去交己所往见布使方片青领看外般别农加与党取整展斗头志加府热极十利铁已自层质场",
    "image": "http://dummyimage.com/100x100/79f2bf&text=Kseotnlon Ugtf Rgyiucied Jeehcgf"
  },
  {
    "id": "610000201509301207",
    "name": "石超",
    "price": 23,
    "count": 0,
    "desc": "新代重先家后主效收能技于例百及亲况正儿角引水名音存共整各格指众正外中两把下共表资来经没铁界相该着越者义定况指段化质维深斗过位直矿拉响书圆了边她许严相除从西它想条装说华保子手影道群她是大中际山常安国想命际即维求元上列争局斯将认离候反许东万选石区从元由具元点今后品起么达青连指至话它积毛其治物局历面一达流传江受更千而各身儿深调带提听米连花称志油千深连气基别产通千历非常志商半非特等题东按界月则定八点候子道",
    "image": "http://dummyimage.com/100x100/f29b79&text=Qacwepxm Cueag Bfnyosy Otpvvn Udgbc Taudsht"
  },
  {
    "id": "65000020180207715X",
    "name": "方强",
    "price": 35,
    "count": 0,
    "desc": "证红片石些边思住快行间机新据必一林关象准这五么持象象重主车你而写者研完边比速人济气会单九么水员老队入条你展商反西小量值应属机律号矿快斯更就速共示千记群也运共快线是素示铁处认红状人小器通界主战级听发线科间白听此么起手志得角切派团事求铁消构完类又证总阶口利图型族理类解近化向才七计名器报步反级问时天车个往则须调高求况体解解铁四出也往现空情用位之矿任运构感质个土制打门复办你压克重变位红活题角体工图育西资花",
    "image": "http://dummyimage.com/100x100/7979f2&text=Fyuxmsik Wdbmllb Qigoa"
  },
  {
    "id": "120000199509135425",
    "name": "汤霞",
    "price": 29,
    "count": 0,
    "desc": "提何相圆了研话比族而新外地里般做今道百列她只设强要土装又位力严为他当再王王应儿议飞规变算治土美局家保单得级她第结进市系然水题电利好十系更光南值真育总布志什而名多被情空基办眼线信交几般参花说但是照话克究义安政厂议面放影府质下拉志精现子史当了多加响张展广么量布统也品做准革于设全形至社百还有领提油深局值色资高型劳社往这场细四织商百资需提商族型速对用见原程些物装金美先次运值引国要示划用团建识把争府便方型共",
    "image": "http://dummyimage.com/100x100/9df279&text=Dzran Rzqsqnegv Xstinl"
  },
  {
    "id": "350000199609293773",
    "name": "雷静",
    "price": 18,
    "count": 0,
    "desc": "保例影打任色求本切较政头越子同政离严过派近该计层历各界小空导国受团又作话反特具条到温信心又权资按便原东义战直种验每包战则己风说展节选资业流青便角元回长山从样织员际红查自立去记青权各者面点般史段积条种作五使标常加法位感样建按育细并型风切史矿由百置白矿质动党列领土据立连院红解过文确劳适每格科团平山则经分组生几改华始查回音公它比存委圆之团力要属山列提包着争专然严本广队清选南众音他近能往江区程把算车会行效",
    "image": "http://dummyimage.com/100x100/f279c0&text=Vovdojag Obtfowji Noqdwivx Vrcdfs Jjxhw Scvso"
  },
  {
    "id": "610000198506174762",
    "name": "郑丽",
    "price": 15,
    "count": 0,
    "desc": "委通例周线别军说片格员张新话备发转高认面那年地府白置志相计等工下非正影红平名品七来半话构主战者传着高土求性思今个根感克红照着花毛王打只七议别打命快级府治打五产能决属务传影养般般低集质部器增深华数需走农上于率至际眼那经采东给拉活该亲相想般在角为包书如商影明说自查局子究用系验内而究油等要美阶问原保易上农难府马近增九统身处备政道议院论线加或信气持观除合号能义时众反在边便领代他集属只决片建都现二月即他前大",
    "image": "http://dummyimage.com/100x100/79e3f2&text=Rfegtlc Bgf Otbqgyimux Tyxbi"
  }
]